<svg id="Twitter" xmlns="http://www.w3.org/2000/svg" width="51.15" height="50.97" viewBox="0 0 51.15 50.97">
  <defs>
    <style>
      .cls-1 {
        fill: #4fc6f8;
      }

      .cls-1, .cls-2 {
        fill-rule: evenodd;
      }

      .cls-2 {
        fill: #fff;
      }
    </style>
  </defs>
  <path id="Base" class="cls-1" d="M1252.54,1708a25.49,25.49,0,1,1-25.58,25.49A25.538,25.538,0,0,1,1252.54,1708Z" transform="translate(-1226.97 -1708)"/>
  <path id="Twitter_Icon" data-name="Twitter Icon" class="cls-2" d="M1266.96,1726.34a10.468,10.468,0,0,1-3.02.83,5.245,5.245,0,0,0,2.31-2.9,10.646,10.646,0,0,1-3.33,1.27,5.263,5.263,0,0,0-9.1,3.58,5.322,5.322,0,0,0,.14,1.2,14.973,14.973,0,0,1-10.84-5.48,5.242,5.242,0,0,0,1.63,7,5.326,5.326,0,0,1-2.38-.66v0.07a5.253,5.253,0,0,0,4.22,5.14,5.3,5.3,0,0,1-1.39.18,4.619,4.619,0,0,1-.99-0.1,5.248,5.248,0,0,0,4.91,3.64,10.53,10.53,0,0,1-6.52,2.25,10.393,10.393,0,0,1-1.26-.08,14.949,14.949,0,0,0,23.01-12.55c0-.23,0-0.45-0.01-0.68A10.546,10.546,0,0,0,1266.96,1726.34Z" transform="translate(-1226.97 -1708)"/>
</svg>
